{
  "project_info": {
    "project_number": "522313256209",
    "firebase_url": "https://news-7be9f.firebaseio.com",
    "project_id": "news-7be9f",
    "storage_bucket": "news-7be9f.appspot.com"
  },
  "client": [
    {
      "client_info": {
        "mobilesdk_app_id": "1:522313256209:android:f37c0f6a9c26bdfe",
        "android_client_info": {
          "package_name": "news.com.news"
        }
      },
      "oauth_client": [
        {
          "client_id": "522313256209-2s4gpvqn6ulim05amktk4ed1e143tl6t.apps.googleusercontent.com",
          "client_type": 1,
          "android_info": {
            "package_name": "news.com.news",
            "certificate_hash": "4d187d30548b20f5d3b68d7598890bfa5daf3a8c"
          }
        },
        {
          "client_id": "522313256209-4tl69keq616pbdqe2vljma3jocdh0v9e.apps.googleusercontent.com",
          "client_type": 3
        }
      ],
      "api_key": [
        {
          "current_key": "AIzaSyB3wTmiSoIbSyaCXqIkWm3CyuPHF_4bYHA"
        }
      ],
      "services": {
        "analytics_service": {
          "status": 1
        },
        "appinvite_service": {
          "status": 2,
          "other_platform_oauth_client": [
            {
              "client_id": "522313256209-4tl69keq616pbdqe2vljma3jocdh0v9e.apps.googleusercontent.com",
              "client_type": 3
            }
          ]
        },
        "ads_service": {
          "status": 2
        }
      }
    }
  ],
  "configuration_version": "1"
}